# Fdb version 3
["pdflatex"] 1625670348 "c:/Users/raphael.werner/ospresentation/handout/wernerRaphael_OS-Handout.tex" "wernerRaphael_OS-Handout.pdf" "wernerRaphael_OS-Handout" 1625670354
  "C:/Users/raphael.werner/AppData/Local/MiKTeX/fonts/pk/ljfour/public/cmbright/dpi1037/ebbx10.pk" 1625217861 39920 87242a564d0cf7d5ea4591becf75345a ""
  "C:/Users/raphael.werner/AppData/Local/MiKTeX/fonts/pk/ljfour/public/cmbright/dpi1493/ebbx10.pk" 1625217871 59568 3bb82b18b8009dd3d6cd466d97214337 ""
  "C:/Users/raphael.werner/AppData/Local/MiKTeX/fonts/pk/ljfour/public/cmbright/dpi657/ebmo10.pk" 1625217867 27232 49f50a41d693e7ffe7849f96dc96cae7 ""
  "C:/Users/raphael.werner/AppData/Local/MiKTeX/fonts/pk/ljfour/public/cmbright/dpi720/ebmo10.pk" 1625217863 29816 d4a7ec07739f6f81cef0083c017bd866 ""
  "C:/Users/raphael.werner/AppData/Local/MiKTeX/fonts/pk/ljfour/public/cmbright/dpi720/ebmr10.pk" 1625217865 24072 3ef654595e1cc957e575f23fe0f1b4b0 ""
  "C:/Users/raphael.werner/AppData/Local/MiKTeX/fonts/pk/ljfour/public/cmbright/dpi720/ebtl10.pk" 1625651639 23936 cc65232c2730b5ad9853a71a93d118f7 ""
  "C:/Users/raphael.werner/AppData/Local/MiKTeX/fonts/pk/ljfour/public/cmbright/dpi720/tbmr10.pk" 1625670226 13096 82606f77b9eef3ec2c0a6b62b570c208 ""
  "C:/Users/raphael.werner/AppData/Local/MiKTeX/miktex/data/le/pdftex/pdflatex.fmt" 1625216724 9747116 97927b8d23012c22c95baa84608d67ba ""
  "C:/Users/raphael.werner/AppData/Local/MiKTeX/pdftex/config/pdftex.map" 1625656111 80909 eab91d9745dd2edfd62a31d53cd5fe15 ""
  "C:/Users/raphael.werner/AppData/Local/Programs/MiKTeX/fonts/tfm/public/cm/cmr12.tfm" 1136768653 1288 655e228510b4c2a1abe905c368440826 ""
  "C:/Users/raphael.werner/AppData/Local/Programs/MiKTeX/fonts/tfm/public/cmbright/cmbr10.tfm" 864662942 1304 95ad082f6791446dc43df559d5c79878 ""
  "C:/Users/raphael.werner/AppData/Local/Programs/MiKTeX/fonts/tfm/public/cmbright/cmbr17.tfm" 864662942 1292 864850248589e7d3af41afc829d0eaf3 ""
  "C:/Users/raphael.werner/AppData/Local/Programs/MiKTeX/fonts/tfm/public/cmbright/cmbr8.tfm" 1021149232 1304 6f575d26e34fea6311d7ae3e9a5bf8d0 ""
  "C:/Users/raphael.werner/AppData/Local/Programs/MiKTeX/fonts/tfm/public/cmbright/cmbrmi10.tfm" 864662942 1544 20b33e3c0f9b0012adb04ac9d418afaa ""
  "C:/Users/raphael.werner/AppData/Local/Programs/MiKTeX/fonts/tfm/public/cmbright/cmbrmi8.tfm" 1021149244 1536 e5dc1fc92eaa02a077dfd8f5bb78f6ce ""
  "C:/Users/raphael.werner/AppData/Local/Programs/MiKTeX/fonts/tfm/public/cmbright/cmbrsy10.tfm" 864662942 1124 00df9b89c9eb5dfe10f722aab27b3560 ""
  "C:/Users/raphael.werner/AppData/Local/Programs/MiKTeX/fonts/tfm/public/cmbright/cmbrsy8.tfm" 864662942 1120 90e1ff57236ed6769cdb8e6d58469358 ""
  "C:/Users/raphael.werner/AppData/Local/Programs/MiKTeX/fonts/tfm/public/cmbright/ebbx10.tfm" 864985486 3132 c7da076fe28db5529270d35c3089c073 ""
  "C:/Users/raphael.werner/AppData/Local/Programs/MiKTeX/fonts/tfm/public/cmbright/ebmo10.tfm" 864985496 3308 6bcb8c98687be31c71b9425c854eae13 ""
  "C:/Users/raphael.werner/AppData/Local/Programs/MiKTeX/fonts/tfm/public/cmbright/ebmr10.tfm" 864985544 3092 5e77de0b5834ec014abfb4fbde93bc09 ""
  "C:/Users/raphael.werner/AppData/Local/Programs/MiKTeX/fonts/tfm/public/cmbright/ebmr17.tfm" 864985556 3088 cedefe459fd712f848e823e4c837691b ""
  "C:/Users/raphael.werner/AppData/Local/Programs/MiKTeX/fonts/tfm/public/cmbright/ebtl10.tfm" 864985686 1352 5dcd85b5d3e257479b4c6dd07ac360cc ""
  "C:/Users/raphael.werner/AppData/Local/Programs/MiKTeX/fonts/tfm/public/cmbright/tbmr10.tfm" 1022280362 1476 1d92fe70b3c834a471e5789b0cf798ef ""
  "C:/Users/raphael.werner/AppData/Local/Programs/MiKTeX/tex/context/base/mkii/supp-pdf.mkii" 1580393758 71627 94eb9990bed73c364d7f53f960cc8c5b ""
  "C:/Users/raphael.werner/AppData/Local/Programs/MiKTeX/tex/generic/atbegshi/atbegshi.sty" 1575574700 24708 5584a51a7101caf7e6bbf1fc27d8f7b1 ""
  "C:/Users/raphael.werner/AppData/Local/Programs/MiKTeX/tex/generic/babel/babel.def" 1622647513 121009 d797444026f7ec580bc6c8aa432a71ab ""
  "C:/Users/raphael.werner/AppData/Local/Programs/MiKTeX/tex/generic/babel/babel.sty" 1622647513 38293 26f2f602aa9980977a58a9f27958a46e ""
  "C:/Users/raphael.werner/AppData/Local/Programs/MiKTeX/tex/generic/babel/txtbabel.def" 1622647513 5231 5be3855ace389d4edc6cb696d7d1ee44 ""
  "C:/Users/raphael.werner/AppData/Local/Programs/MiKTeX/tex/generic/bigintcalc/bigintcalc.sty" 1576437202 40635 c40361e206be584d448876bba8a64a3b ""
  "C:/Users/raphael.werner/AppData/Local/Programs/MiKTeX/tex/generic/bitset/bitset.sty" 1575930176 33961 6b5c75130e435b2bfdb9f480a09a39f9 ""
  "C:/Users/raphael.werner/AppData/Local/Programs/MiKTeX/tex/generic/etexcmds/etexcmds.sty" 1576437238 7734 b98cbb34c81f667027c1e3ebdbfce34b ""
  "C:/Users/raphael.werner/AppData/Local/Programs/MiKTeX/tex/generic/gettitlestring/gettitlestring.sty" 1576437266 8371 9d55b8bd010bc717624922fb3477d92e ""
  "C:/Users/raphael.werner/AppData/Local/Programs/MiKTeX/tex/generic/iftex/iftex.sty" 1583527000 6501 4011d89d9621e0b0901138815ba5ff29 ""
  "C:/Users/raphael.werner/AppData/Local/Programs/MiKTeX/tex/generic/infwarerr/infwarerr.sty" 1575403108 8356 7bbb2c2373aa810be568c29e333da8ed ""
  "C:/Users/raphael.werner/AppData/Local/Programs/MiKTeX/tex/generic/intcalc/intcalc.sty" 1576437364 31769 002a487f55041f8e805cfbf6385ffd97 ""
  "C:/Users/raphael.werner/AppData/Local/Programs/MiKTeX/tex/generic/kvdefinekeys/kvdefinekeys.sty" 1576766904 5412 d5a2436094cd7be85769db90f29250a6 ""
  "C:/Users/raphael.werner/AppData/Local/Programs/MiKTeX/tex/generic/kvsetkeys/kvsetkeys.sty" 1576437420 13807 952b0226d4efca026f0e19dd266dcc22 ""
  "C:/Users/raphael.werner/AppData/Local/Programs/MiKTeX/tex/generic/ltxcmds/ltxcmds.sty" 1601735609 18568 4409f8f50cd365c68e684407e5350b1b ""
  "C:/Users/raphael.werner/AppData/Local/Programs/MiKTeX/tex/generic/pdfescape/pdfescape.sty" 1575930300 19007 15924f7228aca6c6d184b115f4baa231 ""
  "C:/Users/raphael.werner/AppData/Local/Programs/MiKTeX/tex/generic/pdftexcmds/pdftexcmds.sty" 1623005277 20089 80423eac55aa175305d35b49e04fe23b ""
  "C:/Users/raphael.werner/AppData/Local/Programs/MiKTeX/tex/generic/uniquecounter/uniquecounter.sty" 1576437612 7008 f92eaa0a3872ed622bbf538217cd2ab7 ""
  "C:/Users/raphael.werner/AppData/Local/Programs/MiKTeX/tex/latex/00miktex/epstopdf-sys.cfg" 1616070885 584 2a1075dd71571459f59146da9f7502ad ""
  "C:/Users/raphael.werner/AppData/Local/Programs/MiKTeX/tex/latex/arabi/bblopts.cfg" 1139965200 902 c30e5c373bc58bde21f8f63a3091626f ""
  "C:/Users/raphael.werner/AppData/Local/Programs/MiKTeX/tex/latex/atveryend/atveryend.sty" 1576104710 19336 ce7ae9438967282886b3b036cfad1e4d ""
  "C:/Users/raphael.werner/AppData/Local/Programs/MiKTeX/tex/latex/auxhook/auxhook.sty" 1576542332 3935 57aa3c3e203a5c2effb4d2bd2efbc323 ""
  "C:/Users/raphael.werner/AppData/Local/Programs/MiKTeX/tex/latex/babel-german/ngerman.ldf" 1614786071 2289 b1d356015c8fd065cb4437d567449559 ""
  "C:/Users/raphael.werner/AppData/Local/Programs/MiKTeX/tex/latex/babel-german/ngermanb.ldf" 1614786071 7752 76871ff65dd4689e1a548995ac96d8c3 ""
  "C:/Users/raphael.werner/AppData/Local/Programs/MiKTeX/tex/latex/base/atbegshi-ltx.sty" 1622623408 3034 7076a43c47446700860d2aebb65ebed5 ""
  "C:/Users/raphael.werner/AppData/Local/Programs/MiKTeX/tex/latex/base/atveryend-ltx.sty" 1622623408 2459 f9456a3cd988c2865f64e327cdb6f7a0 ""
  "C:/Users/raphael.werner/AppData/Local/Programs/MiKTeX/tex/latex/base/fontenc.sty" 1622623408 4946 461cc78f6f26901410d9f1d725079cc6 ""
  "C:/Users/raphael.werner/AppData/Local/Programs/MiKTeX/tex/latex/base/inputenc.sty" 1622623408 5049 969aec05d5f39c43f8005910498fcf90 ""
  "C:/Users/raphael.werner/AppData/Local/Programs/MiKTeX/tex/latex/bookmark/bkm-pdftex.def" 1604859466 8609 8ac7db65d9617618cf703bd16c1bd0b8 ""
  "C:/Users/raphael.werner/AppData/Local/Programs/MiKTeX/tex/latex/bookmark/bookmark.sty" 1604859466 18237 5cbdfe9ef383a557f780a0a1f45cdb1c ""
  "C:/Users/raphael.werner/AppData/Local/Programs/MiKTeX/tex/latex/cmap/cmap.sty" 1612613098 3574 ddc11a0ae1c579d351ed20d2319ad422 ""
  "C:/Users/raphael.werner/AppData/Local/Programs/MiKTeX/tex/latex/cmap/ot1.cmap" 1612613098 1207 4e0d96772f0d338847cbfb4eca683c81 ""
  "C:/Users/raphael.werner/AppData/Local/Programs/MiKTeX/tex/latex/cmap/t1.cmap" 1612613098 1938 beaa4a8467aa0074076e0e19f2992e29 ""
  "C:/Users/raphael.werner/AppData/Local/Programs/MiKTeX/tex/latex/cmbright/cmbright.sty" 1113400844 5449 577672f71e72b506039e93617e342780 ""
  "C:/Users/raphael.werner/AppData/Local/Programs/MiKTeX/tex/latex/cmbright/omlcmbrm.fd" 1113400844 971 fc3ca0f473ef3ba42b92ded9deeea11e ""
  "C:/Users/raphael.werner/AppData/Local/Programs/MiKTeX/tex/latex/cmbright/omscmbrs.fd" 1113400844 913 6f5c8d9c0442a5f4c6fb1114c7c0abd9 ""
  "C:/Users/raphael.werner/AppData/Local/Programs/MiKTeX/tex/latex/cmbright/ot1cmbr.fd" 1113400844 1208 84b694fa6094d71e1e1e5ed3bfc3ae34 ""
  "C:/Users/raphael.werner/AppData/Local/Programs/MiKTeX/tex/latex/cmbright/t1cmbr.fd" 1113400844 1420 e16ecc50f76a6f8364829e3426ced567 ""
  "C:/Users/raphael.werner/AppData/Local/Programs/MiKTeX/tex/latex/cmbright/t1cmtl.fd" 1113400844 979 825f1cbd9138b9c647eeddc8c6b7e0d5 ""
  "C:/Users/raphael.werner/AppData/Local/Programs/MiKTeX/tex/latex/cmbright/ts1cmbr.fd" 1113400844 1448 eb8e7d76330458c3c0f29a311a171987 ""
  "C:/Users/raphael.werner/AppData/Local/Programs/MiKTeX/tex/latex/csquotes/csquotes.cfg" 1613982684 7068 06f8d141725d114847527a66439066b6 ""
  "C:/Users/raphael.werner/AppData/Local/Programs/MiKTeX/tex/latex/csquotes/csquotes.def" 1613982684 20781 dc1bec6693d5466d8972ecc6b81f9f0b ""
  "C:/Users/raphael.werner/AppData/Local/Programs/MiKTeX/tex/latex/csquotes/csquotes.sty" 1613982684 62518 6e0d74482f5cb16b3b0755031e72faf1 ""
  "C:/Users/raphael.werner/AppData/Local/Programs/MiKTeX/tex/latex/epstopdf-pkg/epstopdf-base.sty" 1623003186 13886 d1306dcf79a944f6988e688c1785f9ce ""
  "C:/Users/raphael.werner/AppData/Local/Programs/MiKTeX/tex/latex/etoolbox/etoolbox.sty" 1601897756 46845 3b58f70c6e861a13d927bff09d35ecbc ""
  "C:/Users/raphael.werner/AppData/Local/Programs/MiKTeX/tex/latex/footmisc/footmisc.sty" 1307374151 25776 d28bd6d82f168f8cb2268584b67a2a98 ""
  "C:/Users/raphael.werner/AppData/Local/Programs/MiKTeX/tex/latex/graphics-cfg/graphics.cfg" 1465894292 1224 978390e9c2234eab29404bc21b268d1e ""
  "C:/Users/raphael.werner/AppData/Local/Programs/MiKTeX/tex/latex/graphics-def/pdftex.def" 1622562294 19103 48d29b6e2a64cb717117ef65f107b404 ""
  "C:/Users/raphael.werner/AppData/Local/Programs/MiKTeX/tex/latex/graphics/graphics.sty" 1623003325 18399 7e40f80366dffb22c0e7b70517db5cb4 ""
  "C:/Users/raphael.werner/AppData/Local/Programs/MiKTeX/tex/latex/graphics/graphicx.sty" 1623003325 7972 81ea1752666dc7c1e93f0b4c10665ca1 ""
  "C:/Users/raphael.werner/AppData/Local/Programs/MiKTeX/tex/latex/graphics/keyval.sty" 1623003325 2671 4de6781a30211fe0ea4c672e4a2a8166 ""
  "C:/Users/raphael.werner/AppData/Local/Programs/MiKTeX/tex/latex/graphics/trig.sty" 1623003325 4007 3bccccf8f35e1bc1ef0f7c55ceeb7713 ""
  "C:/Users/raphael.werner/AppData/Local/Programs/MiKTeX/tex/latex/hycolor/hycolor.sty" 1580384392 18571 4c28a13fc3d975e6e81c9bea1d697276 ""
  "C:/Users/raphael.werner/AppData/Local/Programs/MiKTeX/tex/latex/hyperref/hpdftex.def" 1622896656 49890 b37a0c895b1d2c9c6baf952279bc8fc4 ""
  "C:/Users/raphael.werner/AppData/Local/Programs/MiKTeX/tex/latex/hyperref/hyperref-langpatches.def" 1622896658 1777 79685281e9e2eaaae35a7aea8842def5 ""
  "C:/Users/raphael.werner/AppData/Local/Programs/MiKTeX/tex/latex/hyperref/hyperref.sty" 1622896656 230913 891743ebe7e05d887bf8935c56bf772c ""
  "C:/Users/raphael.werner/AppData/Local/Programs/MiKTeX/tex/latex/hyperref/nameref.sty" 1622896656 13242 133e617c5eebffdd05e421624022b267 ""
  "C:/Users/raphael.werner/AppData/Local/Programs/MiKTeX/tex/latex/hyperref/pd1enc.def" 1622896658 14132 88c5edddd483db36cc6075d21fe521ae ""
  "C:/Users/raphael.werner/AppData/Local/Programs/MiKTeX/tex/latex/hyperref/puenc.def" 1622896658 117004 1dbb95ab921eb5ed7360109595227478 ""
  "C:/Users/raphael.werner/AppData/Local/Programs/MiKTeX/tex/latex/koma-script/scrartcl.cls" 1624609552 233316 9f07e16ef495a8d6c0e359ab152973d8 ""
  "C:/Users/raphael.werner/AppData/Local/Programs/MiKTeX/tex/latex/koma-script/scrbase.sty" 1624609552 99856 4c890d8af16075567cef0c4d8b9c3ec9 ""
  "C:/Users/raphael.werner/AppData/Local/Programs/MiKTeX/tex/latex/koma-script/scrkbase.sty" 1624609552 21809 b2014bf48a8996d79c4162b88da35329 ""
  "C:/Users/raphael.werner/AppData/Local/Programs/MiKTeX/tex/latex/koma-script/scrlayer-scrpage.sty" 1624609552 60523 b72e207fdfa7a685b58fc8a9e9113a48 ""
  "C:/Users/raphael.werner/AppData/Local/Programs/MiKTeX/tex/latex/koma-script/scrlayer.sty" 1624609552 87056 7b5825d1967a6c16e9641da43a4fd71a ""
  "C:/Users/raphael.werner/AppData/Local/Programs/MiKTeX/tex/latex/koma-script/scrlfile-hook.sty" 1624609552 10422 be2f2c878190558e80a5e4c1c3689505 ""
  "C:/Users/raphael.werner/AppData/Local/Programs/MiKTeX/tex/latex/koma-script/scrlfile.sty" 1624609552 3128 d39f124aed9b6ba4fe0283d303003d75 ""
  "C:/Users/raphael.werner/AppData/Local/Programs/MiKTeX/tex/latex/koma-script/scrlogo.sty" 1624609552 1954 0b0e5fd43ad7d1c55d1d6bb21484aa01 ""
  "C:/Users/raphael.werner/AppData/Local/Programs/MiKTeX/tex/latex/koma-script/scrsize12pt.clo" 1624609552 6366 613741658db583405250d210a04768de ""
  "C:/Users/raphael.werner/AppData/Local/Programs/MiKTeX/tex/latex/koma-script/tocbasic.sty" 1624609552 106047 5fc6d2fc94514a5495fbb8b37299f2a1 ""
  "C:/Users/raphael.werner/AppData/Local/Programs/MiKTeX/tex/latex/koma-script/typearea.sty" 1624609552 56047 b95bd9f5f20e26e1ed60323365cfda9e ""
  "C:/Users/raphael.werner/AppData/Local/Programs/MiKTeX/tex/latex/kvoptions/kvoptions.sty" 1602228096 22521 d2fceb764a442a2001d257ef11db7618 ""
  "C:/Users/raphael.werner/AppData/Local/Programs/MiKTeX/tex/latex/l3backend/l3backend-pdftex.def" 1620382912 27177 c0f5f128013bde6670e188c4af243210 ""
  "C:/Users/raphael.werner/AppData/Local/Programs/MiKTeX/tex/latex/letltxmacro/letltxmacro.sty" 1575403136 5766 13a9e8766c47f30327caf893ece86ac8 ""
  "C:/Users/raphael.werner/AppData/Local/Programs/MiKTeX/tex/latex/mmap/oml.cmap" 1215051813 1866 c1c12138091b4a8edd4a24a940e6f792 ""
  "C:/Users/raphael.werner/AppData/Local/Programs/MiKTeX/tex/latex/mmap/oms.cmap" 1215051813 2370 3b1f71b14b974f07cef532db09ae9ee0 ""
  "C:/Users/raphael.werner/AppData/Local/Programs/MiKTeX/tex/latex/mmap/omx.cmap" 1215051860 3001 252c8ca42b06a22cb1a11c0e47790c6e ""
  "C:/Users/raphael.werner/AppData/Local/Programs/MiKTeX/tex/latex/refcount/refcount.sty" 1576437552 9878 9e94e8fa600d95f9c7731bb21dfb67a4 ""
  "C:/Users/raphael.werner/AppData/Local/Programs/MiKTeX/tex/latex/rerunfilecheck/rerunfilecheck.sty" 1575574882 9715 b051d5b493d9fe5f4bc251462d039e5f ""
  "C:/Users/raphael.werner/AppData/Local/Programs/MiKTeX/tex/latex/url/url.sty" 1388494052 12796 8edb7d69a20b857904dd0ea757c14ec9 ""
  "c:/Users/raphael.werner/ospresentation/handout/wernerRaphael_OS-Handout.tex" 1625670346 4432 76d666dd98f8d3208adbb05c1f9dd58b ""
  "wernerRaphael_OS-Handout.aux" 1625670352 1018 7f7cf3428ddec66faf6737015c1e704b "pdflatex"
  "wernerRaphael_OS-Handout.out" 1625670352 0 d41d8cd98f00b204e9800998ecf8427e "pdflatex"
  "wernerRaphael_OS-Handout.tex" 1625670346 4432 76d666dd98f8d3208adbb05c1f9dd58b ""
  (generated)
  "wernerRaphael_OS-Handout.log"
  "wernerRaphael_OS-Handout.out"
  "wernerRaphael_OS-Handout.aux"
  "wernerRaphael_OS-Handout.pdf"
